^C:\USERS\032\DOWNLOADS\DXTK11-3DTEXTURE-\3DTEXTURE\CONTENT\SAMPLEPIXELSHADER.HLSL
C:\WINDOWS\GLOBALIZATION\SORTING\SORTDEFAULT.NLS
C:\PROGRAM FILES (X86)\WINDOWS KITS\10\BIN\10.0.15063.0\X86\FXC.EXE
^C:\USERS\032\DOWNLOADS\DXTK11-3DTEXTURE-\3DTEXTURE\CONTENT\SAMPLEVERTEXSHADER.HLSL
C:\WINDOWS\GLOBALIZATION\SORTING\SORTDEFAULT.NLS
C:\PROGRAM FILES (X86)\WINDOWS KITS\10\BIN\10.0.15063.0\X86\FXC.EXE
