^C:\USERS\032\DOCUMENTS\DXTK11-3DTEXTURE-\3DTEXTURE\ARM\DEBUG\APP.OBJ|C:\USERS\032\DOCUMENTS\DXTK11-3DTEXTURE-\3DTEXTURE\ARM\DEBUG\DEVICERESOURCES.OBJ|C:\USERS\032\DOCUMENTS\DXTK11-3DTEXTURE-\3DTEXTURE\ARM\DEBUG\PCH.OBJ|C:\USERS\032\DOCUMENTS\DXTK11-3DTEXTURE-\3DTEXTURE\ARM\DEBUG\SAMPLE3DSCENERENDERER.OBJ|C:\USERS\032\DOCUMENTS\DXTK11-3DTEXTURE-\3DTEXTURE\ARM\DEBUG\SAMPLEFPSTEXTRENDERER.OBJ|C:\USERS\032\DOCUMENTS\DXTK11-3DTEXTURE-\3DTEXTURE\ARM\DEBUG\_3DTEXTUREMAIN.OBJ
C:\WINDOWS\GLOBALIZATION\SORTING\SORTDEFAULT.NLS
C:\USERS\032\DOCUMENTS\DXTK11-3DTEXTURE-\PACKAGES\DIRECTXTK_UWP.2017.12.13.1\BUILD\NATIVE\LIB\ARM\DEBUG\DIRECTXTK.LIB
C:\PROGRAM FILES (X86)\WINDOWS KITS\10\LIB\10.0.15063.0\UM\ARM\D2D1.LIB
C:\PROGRAM FILES (X86)\WINDOWS KITS\10\LIB\10.0.15063.0\UM\ARM\D3D11.LIB
C:\PROGRAM FILES (X86)\WINDOWS KITS\10\LIB\10.0.15063.0\UM\ARM\DXGI.LIB
C:\PROGRAM FILES (X86)\WINDOWS KITS\10\LIB\10.0.15063.0\UM\ARM\WINDOWSCODECS.LIB
C:\PROGRAM FILES (X86)\WINDOWS KITS\10\LIB\10.0.15063.0\UM\ARM\DWRITE.LIB
C:\PROGRAM FILES (X86)\WINDOWS KITS\10\LIB\10.0.15063.0\UM\ARM\WINDOWSAPP.LIB
C:\USERS\032\DOCUMENTS\DXTK11-3DTEXTURE-\3DTEXTURE\ARM\DEBUG\APP.OBJ
C:\USERS\032\DOCUMENTS\DXTK11-3DTEXTURE-\3DTEXTURE\ARM\DEBUG\DEVICERESOURCES.OBJ
C:\USERS\032\DOCUMENTS\DXTK11-3DTEXTURE-\3DTEXTURE\ARM\DEBUG\_3DTEXTUREMAIN.OBJ
C:\USERS\032\DOCUMENTS\DXTK11-3DTEXTURE-\3DTEXTURE\ARM\DEBUG\SAMPLEFPSTEXTRENDERER.OBJ
C:\USERS\032\DOCUMENTS\DXTK11-3DTEXTURE-\3DTEXTURE\ARM\DEBUG\SAMPLE3DSCENERENDERER.OBJ
C:\USERS\032\DOCUMENTS\DXTK11-3DTEXTURE-\3DTEXTURE\ARM\DEBUG\PCH.OBJ
C:\WINDOWS\SYSTEM32\TZRES.DLL
C:\PROGRAM FILES (X86)\MICROSOFT VISUAL STUDIO\2017\COMMUNITY\VC\TOOLS\MSVC\14.11.25503\LIB\ARM\STORE\VCCORLIBD.LIB
C:\PROGRAM FILES (X86)\WINDOWS KITS\10\LIB\10.0.15063.0\UM\ARM\UUID.LIB
C:\PROGRAM FILES (X86)\MICROSOFT VISUAL STUDIO\2017\COMMUNITY\VC\TOOLS\MSVC\14.11.25503\LIB\ARM\STORE\MSVCPRTD.LIB
C:\PROGRAM FILES (X86)\MICROSOFT VISUAL STUDIO\2017\COMMUNITY\VC\TOOLS\MSVC\14.11.25503\LIB\ARM\STORE\CONCRTD.LIB
C:\PROGRAM FILES (X86)\WINDOWS KITS\10\LIB\10.0.15063.0\UM\ARM\DXGUID.LIB
C:\PROGRAM FILES (X86)\MICROSOFT VISUAL STUDIO\2017\COMMUNITY\VC\TOOLS\MSVC\14.11.25503\LIB\ARM\STORE\MSVCRTD.LIB
C:\PROGRAM FILES (X86)\MICROSOFT VISUAL STUDIO\2017\COMMUNITY\VC\TOOLS\MSVC\14.11.25503\LIB\ARM\STORE\OLDNAMES.LIB
C:\PROGRAM FILES (X86)\MICROSOFT VISUAL STUDIO\2017\COMMUNITY\VC\TOOLS\MSVC\14.11.25503\LIB\ARM\STORE\VCRUNTIMED.LIB
C:\PROGRAM FILES (X86)\WINDOWS KITS\10\LIB\10.0.15063.0\UCRT\ARM\UCRTD.LIB
C:\PROGRAM FILES (X86)\MICROSOFT VISUAL STUDIO\2017\COMMUNITY\VC\TOOLS\MSVC\14.11.25503\BIN\HOSTX86\ARM\LINK.EXE
C:\WINDOWS\MICROSOFT.NET\FRAMEWORK\V2.0.50727\MSCORWKS.DLL
C:\WINDOWS\MICROSOFT.NET\FRAMEWORK\V4.0.30319\CLR.DLL
C:\PROGRAM FILES (X86)\MICROSOFT VISUAL STUDIO\2017\COMMUNITY\VC\TOOLS\MSVC\14.11.25503\BIN\HOSTX86\ARM\LINK.EXE.CONFIG
C:\USERS\032\DOCUMENTS\DXTK11-3DTEXTURE-\ARM\DEBUG\3DTEXTURE\_3DTEXTURE.WINMD
